﻿
DisplayName "Lily's Mansion 1F (West)"



EVENT   1
 PAGE   1
  0()



EVENT   6
 PAGE   1
  108("明かり設定3000800")
  0()



EVENT   8
 PAGE   1
  108("明かり設定3300300")
  0()



EVENT   11
 PAGE   1
  108("明かり設定3300300")
  0()



EVENT   12
 PAGE   1
  If(1,1029,0,5,1)
   250(bytes(0x04,0x08,0x6f,0x3a,0x0c,0x52,0x50,0x47,0x3a,0x3a,0x53,0x45,0x08,0x3a,0x0a,0x40,0x6e,0x61,0x6d,0x65,0x49,0x22,0x09,0x4d,0x6f,0x76,0x65,0x06,0x3a,0x06,0x45,0x54,0x3a,0x0b,0x40,0x70,0x69,0x74,0x63,0x68,0x69,0x69,0x3a,0x0c,0x40,0x76,0x6f,0x6c,0x75,0x6d,0x65,0x69,0x55))
   TeleportPlayer(0,359,38,23,0,0)
   EndEventProcessing()
   0()
  EndIf()
  If(0,2091,1)
   ShowMessageFace("",0,0,2,1)
   ShowMessage("扉は固く閉ざされている……")
   EndEventProcessing()
   0()
  Else()
   250(bytes(0x04,0x08,0x6f,0x3a,0x0c,0x52,0x50,0x47,0x3a,0x3a,0x53,0x45,0x08,0x3a,0x0a,0x40,0x6e,0x61,0x6d,0x65,0x49,0x22,0x09,0x4d,0x6f,0x76,0x65,0x06,0x3a,0x06,0x45,0x54,0x3a,0x0b,0x40,0x70,0x69,0x74,0x63,0x68,0x69,0x69,0x3a,0x0c,0x40,0x76,0x6f,0x6c,0x75,0x6d,0x65,0x69,0x55))
   TeleportPlayer(0,359,38,23,0,0)
   EndEventProcessing()
   0()
  EndIf()
  0()



EVENT   13
 PAGE   1
  108("明かり設定3300300")
  0()



EVENT   14
 PAGE   1
  108("明かり設定3300300")
  0()



EVENT   15
 PAGE   1
  108("明かり設定3300300")
  0()



EVENT   17
 PAGE   1
  108("明かり設定3300300")
  0()



EVENT   18
 PAGE   1
  108("明かり設定3300300")
  0()



EVENT   19
 PAGE   1
  108("明かり設定3300300")
  0()



EVENT   21
 PAGE   1
  108("明かり設定3300300")
  0()



EVENT   23
 PAGE   1
  108("明かり設定3300300")
  0()



EVENT   24
 PAGE   1
  108("明かり設定3300300")
  0()



EVENT   16
 PAGE   1
  250(bytes(0x04,0x08,0x6f,0x3a,0x0c,0x52,0x50,0x47,0x3a,0x3a,0x53,0x45,0x08,0x3a,0x0a,0x40,0x6e,0x61,0x6d,0x65,0x49,0x22,0x09,0x4d,0x6f,0x76,0x65,0x06,0x3a,0x06,0x45,0x54,0x3a,0x0b,0x40,0x70,0x69,0x74,0x63,0x68,0x69,0x69,0x3a,0x0c,0x40,0x76,0x6f,0x6c,0x75,0x6d,0x65,0x69,0x55))
  TeleportPlayer(0,359,38,28,0,0)
  0()



EVENT   20
 PAGE   1
  250(bytes(0x04,0x08,0x6f,0x3a,0x0c,0x52,0x50,0x47,0x3a,0x3a,0x53,0x45,0x08,0x3a,0x0a,0x40,0x6e,0x61,0x6d,0x65,0x49,0x22,0x09,0x4d,0x6f,0x76,0x65,0x06,0x3a,0x06,0x45,0x54,0x3a,0x0b,0x40,0x70,0x69,0x74,0x63,0x68,0x69,0x69,0x3a,0x0c,0x40,0x76,0x6f,0x6c,0x75,0x6d,0x65,0x69,0x55))
  TeleportPlayer(0,359,39,28,0,0)
  0()



EVENT   26
 PAGE   1
  0()



EVENT   27
 PAGE   1
  0()



EVENT   9
 PAGE   1
  0()



EVENT   22
 PAGE   1
  0()



EVENT   30
 PAGE   1
  108("明かり設定3300300")
  0()



EVENT   31
 PAGE   1
  108("明かり設定3300300")
  0()



EVENT   4
 PAGE   1
  250(bytes(0x04,0x08,0x6f,0x3a,0x0c,0x52,0x50,0x47,0x3a,0x3a,0x53,0x45,0x08,0x3a,0x0a,0x40,0x6e,0x61,0x6d,0x65,0x49,0x22,0x09,0x4d,0x6f,0x76,0x65,0x06,0x3a,0x06,0x45,0x54,0x3a,0x0b,0x40,0x70,0x69,0x74,0x63,0x68,0x69,0x69,0x3a,0x0c,0x40,0x76,0x6f,0x6c,0x75,0x6d,0x65,0x69,0x55))
  TeleportPlayer(0,360,1,9,6,0)
  0()



EVENT   7
 PAGE   1
  223(bytes(0x04,0x08,0x75,0x3a,0x09,0x54,0x6f,0x6e,0x65,0x25,0x00,0x00,0x00,0x00,0x00,0x00,0x51,0xc0,0x00,0x00,0x00,0x00,0x00,0x00,0x51,0xc0,0x00,0x00,0x00,0x00,0x00,0x00,0x00,0x00,0x00,0x00,0x00,0x00,0x00,0x00,0x51,0x40),1,true)
  TemporaryRemoveEvent()
  0()



EVENT   5
 PAGE   1
  If(8,521)
   250(bytes(0x04,0x08,0x6f,0x3a,0x0c,0x52,0x50,0x47,0x3a,0x3a,0x53,0x45,0x08,0x3a,0x0a,0x40,0x6e,0x61,0x6d,0x65,0x49,0x22,0x09,0x4d,0x6f,0x76,0x65,0x06,0x3a,0x06,0x45,0x54,0x3a,0x0b,0x40,0x70,0x69,0x74,0x63,0x68,0x69,0x69,0x3a,0x0c,0x40,0x76,0x6f,0x6c,0x75,0x6d,0x65,0x69,0x55))
   TeleportPlayer(0,361,13,38,8,0)
   0()
  Else()
   ChangeSwitch(2093,2093,0)
   250(bytes(0x04,0x08,0x6f,0x3a,0x0c,0x52,0x50,0x47,0x3a,0x3a,0x53,0x45,0x08,0x3a,0x0a,0x40,0x6e,0x61,0x6d,0x65,0x49,0x22,0x0b,0x4d,0x61,0x67,0x69,0x63,0x31,0x06,0x3a,0x06,0x45,0x54,0x3a,0x0b,0x40,0x70,0x69,0x74,0x63,0x68,0x69,0x69,0x3a,0x0c,0x40,0x76,0x6f,0x6c,0x75,0x6d,0x65,0x69,0x55))
   250(bytes(0x04,0x08,0x6f,0x3a,0x0c,0x52,0x50,0x47,0x3a,0x3a,0x53,0x45,0x08,0x3a,0x0a,0x40,0x6e,0x61,0x6d,0x65,0x49,0x22,0x09,0x4d,0x6f,0x76,0x65,0x06,0x3a,0x06,0x45,0x54,0x3a,0x0b,0x40,0x70,0x69,0x74,0x63,0x68,0x69,0x69,0x3a,0x0c,0x40,0x76,0x6f,0x6c,0x75,0x6d,0x65,0x69,0x55))
   TeleportPlayer(0,360,16,22,2,0)
   If(0,4,0)
    ShowMessageFace("alice_fc5",0,0,2,1)
    ShowMessage("\\n<Alice>むっ……何か妙な感じだな。")
    0()
   EndIf()
   If(0,5,0)
    ShowMessageFace("iriasu_fc4",2,0,2,2)
    ShowMessage("\\n<Ilias>……なにやら、妙な感じですね。")
    0()
   EndIf()
   If(0,6,0)
    ShowMessageFace("sonia_fc2",2,0,2,3)
    ShowMessage("\\n<Sonya>1階の階段を降りたのに、なんでまた1階なの……？")
    0()
   Else()
    ShowMessageFace("ruka_fc1",0,0,2,4)
    ShowMessage("\\n<Luka>1階の階段を降りたのに、また1階だなんて……")
    0()
   EndIf()
   If(0,4,0)
    ShowMessageFace("alice_fc5",0,0,2,5)
    ShowMessage("\\n<Alice>階段に備わった移動魔術で、別の場所に飛ばされたのだな。 先の階段を降りるためには、魔術を破る手段を探さねば……")
    0()
   EndIf()
   If(0,5,0)
    ShowMessageFace("iriasu_fc4",7,0,2,6)
    ShowMessage("\\n<Ilias>階段に備わった移動魔術で、別の場所に飛ばされたのです。 先の階段を降りるためには、魔術を破る手段を探さないと……")
    0()
   EndIf()
   0()
  EndIf()
  0()



EVENT   2
 PAGE   1
  250(bytes(0x04,0x08,0x6f,0x3a,0x0c,0x52,0x50,0x47,0x3a,0x3a,0x53,0x45,0x08,0x3a,0x0a,0x40,0x6e,0x61,0x6d,0x65,0x49,0x22,0x0a,0x43,0x68,0x65,0x73,0x74,0x06,0x3a,0x06,0x45,0x54,0x3a,0x0b,0x40,0x70,0x69,0x74,0x63,0x68,0x69,0x69,0x3a,0x0c,0x40,0x76,0x6f,0x6c,0x75,0x6d,0x65,0x69,0x55))
  205(0,bytes(0x04,0x08,0x6f,0x3a,0x13,0x52,0x50,0x47,0x3a,0x3a,0x4d,0x6f,0x76,0x65,0x52,0x6f,0x75,0x74,0x65,0x09,0x3a,0x0c,0x40,0x72,0x65,0x70,0x65,0x61,0x74,0x46,0x3a,0x0f,0x40,0x73,0x6b,0x69,0x70,0x70,0x61,0x62,0x6c,0x65,0x46,0x3a,0x0a,0x40,0x77,0x61,0x69,0x74,0x54,0x3a,0x0a,0x40,0x6c,0x69,0x73,0x74,0x5b,0x0b,0x6f,0x3a,0x15,0x52,0x50,0x47,0x3a,0x3a,0x4d,0x6f,0x76,0x65,0x43,0x6f,0x6d,0x6d,0x61,0x6e,0x64,0x07,0x3a,0x0a,0x40,0x63,0x6f,0x64,0x65,0x69,0x29,0x3a,0x10,0x40,0x70,0x61,0x72,0x61,0x6d,0x65,0x74,0x65,0x72,0x73,0x5b,0x00,0x6f,0x3b,0x0a,0x07,0x3b,0x0b,0x69,0x16,0x3b,0x0c,0x5b,0x00,0x6f,0x3b,0x0a,0x07,0x3b,0x0b,0x69,0x14,0x3b,0x0c,0x5b,0x06,0x69,0x08,0x6f,0x3b,0x0a,0x07,0x3b,0x0b,0x69,0x17,0x3b,0x0c,0x5b,0x00,0x6f,0x3b,0x0a,0x07,0x3b,0x0b,0x69,0x14,0x3b,0x0c,0x5b,0x06,0x69,0x08,0x6f,0x3b,0x0a,0x07,0x3b,0x0b,0x69,0x00,0x3b,0x0c,0x5b,0x00))
  ChangeSelfSwitch("A",0)
  ChangeInventory_Item(5,0,0,1)
  0()
 PAGE   2
  // condition: self-switch A is ON
  0()



EVENT   3
 PAGE   1
  250(bytes(0x04,0x08,0x6f,0x3a,0x0c,0x52,0x50,0x47,0x3a,0x3a,0x53,0x45,0x08,0x3a,0x0a,0x40,0x6e,0x61,0x6d,0x65,0x49,0x22,0x0a,0x43,0x68,0x65,0x73,0x74,0x06,0x3a,0x06,0x45,0x54,0x3a,0x0b,0x40,0x70,0x69,0x74,0x63,0x68,0x69,0x69,0x3a,0x0c,0x40,0x76,0x6f,0x6c,0x75,0x6d,0x65,0x69,0x55))
  205(0,bytes(0x04,0x08,0x6f,0x3a,0x13,0x52,0x50,0x47,0x3a,0x3a,0x4d,0x6f,0x76,0x65,0x52,0x6f,0x75,0x74,0x65,0x09,0x3a,0x0c,0x40,0x72,0x65,0x70,0x65,0x61,0x74,0x46,0x3a,0x0f,0x40,0x73,0x6b,0x69,0x70,0x70,0x61,0x62,0x6c,0x65,0x46,0x3a,0x0a,0x40,0x77,0x61,0x69,0x74,0x54,0x3a,0x0a,0x40,0x6c,0x69,0x73,0x74,0x5b,0x0b,0x6f,0x3a,0x15,0x52,0x50,0x47,0x3a,0x3a,0x4d,0x6f,0x76,0x65,0x43,0x6f,0x6d,0x6d,0x61,0x6e,0x64,0x07,0x3a,0x0a,0x40,0x63,0x6f,0x64,0x65,0x69,0x29,0x3a,0x10,0x40,0x70,0x61,0x72,0x61,0x6d,0x65,0x74,0x65,0x72,0x73,0x5b,0x00,0x6f,0x3b,0x0a,0x07,0x3b,0x0b,0x69,0x16,0x3b,0x0c,0x5b,0x00,0x6f,0x3b,0x0a,0x07,0x3b,0x0b,0x69,0x14,0x3b,0x0c,0x5b,0x06,0x69,0x08,0x6f,0x3b,0x0a,0x07,0x3b,0x0b,0x69,0x17,0x3b,0x0c,0x5b,0x00,0x6f,0x3b,0x0a,0x07,0x3b,0x0b,0x69,0x14,0x3b,0x0c,0x5b,0x06,0x69,0x08,0x6f,0x3b,0x0a,0x07,0x3b,0x0b,0x69,0x00,0x3b,0x0c,0x5b,0x00))
  ChangeSelfSwitch("A",0)
  ChangeInventoryArmor(1315,0,0,1)
  0()
 PAGE   2
  // condition: self-switch A is ON
  0()



EVENT   28
 PAGE   1
  250(bytes(0x04,0x08,0x6f,0x3a,0x0c,0x52,0x50,0x47,0x3a,0x3a,0x53,0x45,0x08,0x3a,0x0a,0x40,0x6e,0x61,0x6d,0x65,0x49,0x22,0x0a,0x43,0x68,0x65,0x73,0x74,0x06,0x3a,0x06,0x45,0x54,0x3a,0x0b,0x40,0x70,0x69,0x74,0x63,0x68,0x69,0x69,0x3a,0x0c,0x40,0x76,0x6f,0x6c,0x75,0x6d,0x65,0x69,0x55))
  205(0,bytes(0x04,0x08,0x6f,0x3a,0x13,0x52,0x50,0x47,0x3a,0x3a,0x4d,0x6f,0x76,0x65,0x52,0x6f,0x75,0x74,0x65,0x09,0x3a,0x0c,0x40,0x72,0x65,0x70,0x65,0x61,0x74,0x46,0x3a,0x0f,0x40,0x73,0x6b,0x69,0x70,0x70,0x61,0x62,0x6c,0x65,0x46,0x3a,0x0a,0x40,0x77,0x61,0x69,0x74,0x54,0x3a,0x0a,0x40,0x6c,0x69,0x73,0x74,0x5b,0x0b,0x6f,0x3a,0x15,0x52,0x50,0x47,0x3a,0x3a,0x4d,0x6f,0x76,0x65,0x43,0x6f,0x6d,0x6d,0x61,0x6e,0x64,0x07,0x3a,0x0a,0x40,0x63,0x6f,0x64,0x65,0x69,0x29,0x3a,0x10,0x40,0x70,0x61,0x72,0x61,0x6d,0x65,0x74,0x65,0x72,0x73,0x5b,0x00,0x6f,0x3b,0x0a,0x07,0x3b,0x0b,0x69,0x16,0x3b,0x0c,0x5b,0x00,0x6f,0x3b,0x0a,0x07,0x3b,0x0b,0x69,0x14,0x3b,0x0c,0x5b,0x06,0x69,0x08,0x6f,0x3b,0x0a,0x07,0x3b,0x0b,0x69,0x17,0x3b,0x0c,0x5b,0x00,0x6f,0x3b,0x0a,0x07,0x3b,0x0b,0x69,0x14,0x3b,0x0c,0x5b,0x06,0x69,0x08,0x6f,0x3b,0x0a,0x07,0x3b,0x0b,0x69,0x00,0x3b,0x0c,0x5b,0x00))
  ChangeSelfSwitch("A",0)
  ChangeInventory_Item(52,0,0,1)
  0()
 PAGE   2
  // condition: self-switch A is ON
  0()



EVENT   29
 PAGE   1
  ChangeSwitch(31,31,1)
  ChangeSwitch(100,100,1)
  250(bytes(0x04,0x08,0x6f,0x3a,0x0c,0x52,0x50,0x47,0x3a,0x3a,0x53,0x45,0x08,0x3a,0x0a,0x40,0x6e,0x61,0x6d,0x65,0x49,0x22,0x09,0x4d,0x6f,0x76,0x65,0x06,0x3a,0x06,0x45,0x54,0x3a,0x0b,0x40,0x70,0x69,0x74,0x63,0x68,0x69,0x69,0x3a,0x0c,0x40,0x76,0x6f,0x6c,0x75,0x6d,0x65,0x69,0x55))
  223(bytes(0x04,0x08,0x75,0x3a,0x09,0x54,0x6f,0x6e,0x65,0x25,0x00,0x00,0x00,0x00,0x00,0x00,0x00,0x00,0x00,0x00,0x00,0x00,0x00,0x00,0x00,0x00,0x00,0x00,0x00,0x00,0x00,0x00,0x00,0x00,0x00,0x00,0x00,0x00,0x00,0x00,0x00,0x00),1,true)
  TeleportPlayer(0,224,38,17,0,0)
  0()



EVENT   33
 PAGE   1
  0()
 PAGE   2
  // condition: variable 1029 >= 3
  0()



EVENT   34
 PAGE   1
  ChangeSwitch(100,100,0)
  241(bytes(0x04,0x08,0x6f,0x3a,0x0d,0x52,0x50,0x47,0x3a,0x3a,0x42,0x47,0x4d,0x08,0x3a,0x0a,0x40,0x6e,0x61,0x6d,0x65,0x49,0x22,0x0a,0x6b,0x69,0x6b,0x69,0x32,0x06,0x3a,0x06,0x45,0x54,0x3a,0x0c,0x40,0x76,0x6f,0x6c,0x75,0x6d,0x65,0x69,0x69,0x3a,0x0b,0x40,0x70,0x69,0x74,0x63,0x68,0x69,0x69))
  205(33,bytes(0x04,0x08,0x6f,0x3a,0x13,0x52,0x50,0x47,0x3a,0x3a,0x4d,0x6f,0x76,0x65,0x52,0x6f,0x75,0x74,0x65,0x09,0x3a,0x0c,0x40,0x72,0x65,0x70,0x65,0x61,0x74,0x46,0x3a,0x0f,0x40,0x73,0x6b,0x69,0x70,0x70,0x61,0x62,0x6c,0x65,0x46,0x3a,0x0a,0x40,0x77,0x61,0x69,0x74,0x54,0x3a,0x0a,0x40,0x6c,0x69,0x73,0x74,0x5b,0x0e,0x6f,0x3a,0x15,0x52,0x50,0x47,0x3a,0x3a,0x4d,0x6f,0x76,0x65,0x43,0x6f,0x6d,0x6d,0x61,0x6e,0x64,0x07,0x3a,0x0a,0x40,0x63,0x6f,0x64,0x65,0x69,0x22,0x3a,0x10,0x40,0x70,0x61,0x72,0x61,0x6d,0x65,0x74,0x65,0x72,0x73,0x5b,0x06,0x69,0x09,0x6f,0x3b,0x0a,0x07,0x3b,0x0b,0x69,0x06,0x3b,0x0c,0x5b,0x00,0x6f,0x3b,0x0a,0x07,0x3b,0x0b,0x69,0x06,0x3b,0x0c,0x5b,0x00,0x6f,0x3b,0x0a,0x07,0x3b,0x0b,0x69,0x06,0x3b,0x0c,0x5b,0x00,0x6f,0x3b,0x0a,0x07,0x3b,0x0b,0x69,0x06,0x3b,0x0c,0x5b,0x00,0x6f,0x3b,0x0a,0x07,0x3b,0x0b,0x69,0x06,0x3b,0x0c,0x5b,0x00,0x6f,0x3b,0x0a,0x07,0x3b,0x0b,0x69,0x06,0x3b,0x0c,0x5b,0x00,0x6f,0x3b,0x0a,0x07,0x3b,0x0b,0x69,0x06,0x3b,0x0c,0x5b,0x00,0x6f,0x3b,0x0a,0x07,0x3b,0x0b,0x69,0x00,0x3b,0x0c,0x5b,0x00))
  PictureDisplay(5,"80_lily_st11",0,0,0,0,100,100,0,0)
  PictureMove(5,null,0,0,0,0,100,100,255,0,30,true)
  ShowMessageFace("lily_fc1",0,0,2,1)
  ShowMessage("\\n<Lily>待っていたわ…… 私がこの村の領主、リリィ・メーストルよ。")
  ShowMessageFace("lily_fc1",0,0,2,2)
  ShowMessage("\\n<Lily>私に話を聞きたいのでしょう？ それじゃあ、こちらへどうぞ……")
  PictureClear(5)
  221()
  ChangeVariable(1029,1029,0,0,3)
  281(1)
  TeleportPlayer(0,359,34,36,4,2)
  222()
  PictureDisplay(5,"80_lily_st11",0,0,0,0,100,100,0,0)
  PictureMove(5,null,0,0,0,0,100,100,255,0,30,true)
  If(0,1529,1)
   ShowMessageFace("ruka_fc1",0,0,2,3)
   ShowMessage("\\n<Luka>あんたが、この村でやった事だけど……")
   0()
  Else()
   ShowMessageFace("sara_fc1",2,0,2,4)
   ShowMessage("\\n<Sara>悪いけれど、すぐに本題に入るわ。 まずは、この村の男性達を私的に処刑した疑いについて……")
   0()
  EndIf()
  PictureDisplay(5,"80_lily_st13",0,0,0,0,100,100,255,0)
  ShowMessageFace("lily_fc1",2,0,2,5)
  ShowMessage("\\n<Lily>村の者達から、話は聞いたでしょう？ この村の男達は、女性に苛烈な暴力と虐待を働いてきたの。")
  ShowMessageFace("lily_fc1",2,0,2,6)
  ShowMessage("\\n<Lily>それを因習で正当化し、弾圧を続け…… この村の女の大半は、20歳になる前に死ぬのよ。")
  ShowMessageFace("lily_fc1",2,0,2,7)
  ShowMessage("\\n<Lily>そんな悲惨な現状を打破するには、力しかないわ…… 私達は、自分の身を守っただけよ。")
  If(0,1529,1)
   ShowMessageFace("ruka_fc1",0,0,2,8)
   ShowMessage("\\n<Luka>でも、男達を殺してしまうなんて…… サバサ本国に訴えるとか、何かなかったんですか？")
   ShowMessageFace("lily_fc1",2,0,2,9)
   ShowMessage("\\n<Lily>何もなかったの、サバサはこの村を放置し続けたわ…… この村では、男女の平均寿命に30歳以上もの差があったのよ。")
   0()
  Else()
   ShowMessageFace("sara_fc1",0,0,2,10)
   ShowMessage("\\n<Sara>どんな事情があろうとも、私刑は私刑よ。 法治国家において、それは許されないわ。")
   ShowMessageFace("lily_fc1",2,0,2,11)
   ShowMessage("\\n<Lily>法治国家を気取る中央政府が、今まで何をしてきたの？ この村では、男女の平均寿命に30歳以上もの差があったのよ。")
   0()
  EndIf()
  If(0,6,0)
   ShowMessageFace("sonia_fc3",7,0,2,12)
   ShowMessage("\\n<Sonya>男女の平均寿命が、30歳以上……？ いったい何をしたら、そんなに……")
   0()
  Else()
   ShowMessageFace("ruka_fc1",0,0,2,13)
   ShowMessage("\\n<Luka>男女の平均寿命が、30歳以上……？ いったい何をしたら、そんなに……")
   0()
  EndIf()
  If(0,1529,1)
   ShowMessageFace("lily_fc1",2,0,2,14)
   ShowMessage("\\n<Lily>自治権の独立を盾にとって、この村は中央の統制を逃れた。 事実上、法は暴虐を行っている者を守ってきたのよ。")
   0()
  Else()
   ShowMessageFace("lily_fc1",2,0,2,15)
   ShowMessage("\\n<Lily>中央の人間は、それを確実に把握してたわよね？ 把握していたのに、何も……ずっと何の手も打たなかったわ。")
   ShowMessageFace("sara_fc1",4,0,2,16)
   ShowMessage("\\n<Sara>地方行政権は、サバサ憲法の第5条で保障されているから…… 中央政府が強制的に介入すれば、それは憲法違反に……")
   ShowMessageFace("lily_fc1",2,0,2,17)
   ShowMessage("\\n<Lily>ええ、確かに法律的には地方自治権の侵害ね。 虐待の多くも、民事への国権不介入で片付けられるわ……")
   ShowMessageFace("lily_fc1",2,0,2,18)
   ShowMessage("\\n<Lily>多くの因習は、思想の自由で保護されているし…… 何より、訴える者がいなければ事件にさえならない……")
   ShowMessageFace("lily_fc1",2,0,2,19)
   ShowMessage("\\n<Lily>この村の女達に、正当な司法手続きなんて出来たと思う！？ 家に閉じ込められ、外に出られず、暴力を受け続けた女達が！")
   ShowMessageFace("lily_fc1",2,0,2,20)
   ShowMessage("\\n<Lily>私だって、領主の娘だからチヤホヤされたとでも思うの！ 逆よ！　生け贄同然だったわ、ずっとね……！")
   ShowMessageFace("lily_fc1",2,0,2,21)
   ShowMessage("\\n<Lily>結局、法は暴虐を行っている者達を守ったのよ！ 私達に必要なのは、現状を打ち破る事のできる力だった！")
   0()
  EndIf()
  ShowMessageFace("lily_fc1",2,0,2,22)
  ShowMessage("\\n<Lily>この屋敷に残された蝕魔導の書物を、独力で学び…… そして力を手にして、ようやく村の女達は救われたのよ。")
  If(0,1529,1)
   ShowMessageFace("ruka_fc1",0,0,2,23)
   ShowMessage("\\n<Luka>……………………")
   If(0,4,0)
    ShowMessageFace("alice_fc5",3,0,2,24)
    ShowMessage("\\n<Alice>この世には、白黒つけられん事もある…… それを裁くのは、我々の目的ではない。")
    ShowMessageFace("alice_fc5",0,0,2,25)
    ShowMessage("\\n<Alice>それに、我々に何か用事があるのだろう？ わざわざ領主自ら迎えたのは、頼みがあるからではないのか？")
    0()
   EndIf()
   If(0,5,0)
    ShowMessageFace("iriasu_fc4",2,0,2,26)
    ShowMessage("\\n<Ilias>人間社会には、色々と理不尽な事もあるでしょう…… その一つ一つにまで、私は関与するつもりもありません。")
    ShowMessageFace("iriasu_fc4",7,0,2,27)
    ShowMessage("\\n<Ilias>そもそも、私達に何か用事があるのでしょう？ 領主自ら迎えたのは、頼みがあるからではないのすか？")
    0()
   EndIf()
   0()
  Else()
   ShowMessageFace("sara_fc1",4,0,2,28)
   ShowMessage("\\n<Sara>……………………")
   ShowMessageFace("sara_fc1",0,0,2,29)
   ShowMessage("\\n<Sara>あなた達の境遇は、同情に余りあるわ。 そして中央政府の非は非常に大きい……")
   ShowMessageFace("sara_fc1",0,0,2,30)
   ShowMessage("\\n<Sara>ここで私情を述べるなら、あなた達の行動は黙認したい…… でも私は、法で動かなければならない立場なの。")
   PictureDisplay(5,"80_lily_st11",0,0,0,0,100,100,255,0)
   ShowMessageFace("lily_fc1",0,0,2,31)
   ShowMessage("\\n<Lily>法治国家の精神に則って考えるなら…… 今のあなたに、司法権はあるのかしら？")
   ShowMessageFace("lily_fc1",0,0,2,32)
   ShowMessage("\\n<Lily>女王を退位し、議会制に移行の最中…… 実質的に、民間人にあたるわよね？")
   ShowMessageFace("sara_fc1",4,0,2,33)
   ShowMessage("\\n<Sara>ええ、その通りね…… あくまで司法に通報する一市民、という立場でしかないわ。")
   ShowMessageFace("lily_fc1",0,0,2,34)
   ShowMessage("\\n<Lily>それに、この村で男達が虐殺されたという事だけど…… 私は力を与えただけで、何も指示はしていないわ。")
   ShowMessageFace("lily_fc1",0,0,2,35)
   ShowMessage("\\n<Lily>彼女達は、自分達の意志で現状を打破したのよ。 己の命を守るため、仕方なく……ね。")
   ShowMessageFace("lily_fc1",0,0,2,36)
   ShowMessage("\\n<Lily>これは、事実上の正当防衛よ。 個別的な正当防衛の集積であり、集団的虐殺にはあたらない。")
   ShowMessageFace("sara_fc1",4,0,2,37)
   ShowMessage("\\n<Sara>それは無茶よ…… あくまで首謀者としての責任は問われるわ。")
   ShowMessageFace("lily_fc1",0,0,2,38)
   ShowMessage("\\n<Lily>それで……それを法廷で証明できるのかしら？ 法治国家である以上、立証しなければならないわよね。")
   ShowMessageFace("sara_fc1",4,0,2,39)
   ShowMessage("\\n<Sara>……………………")
   ShowMessageFace("lily_fc1",0,0,2,40)
   ShowMessage("\\n<Lily>ともかく…… あなたに何の法的権限もない以上、出頭には応じられない。")
   ShowMessageFace("lily_fc1",0,0,2,41)
   ShowMessage("\\n<Lily>それでも客人として遇したのは、理解してほしかったからよ。")
   ShowMessageFace("lily_fc1",0,0,2,42)
   ShowMessage("\\n<Lily>私達がどんな境遇にあったか…… そして、何をしないと生きられなかったか……")
   ShowMessageFace("lily_fc1",0,0,2,43)
   ShowMessage("\\n<Lily>それでも、私を訴えるというならご自由に。 ただ、独立自治権や民事不介入の壁は厚いわよ……")
   ShowMessageFace("lily_fc1",0,0,2,44)
   ShowMessage("\\n<Lily>……あなたの父親が、結局私達を救えなかったようにね。 法律は、今度は私達の味方になるわ。")
   ShowMessageFace("lily_fc1",0,0,2,45)
   ShowMessage("\\n<Lily>それでも私を捕らえるなら、正当な訴状を持って出直すのね。 今は何の権限もない、元女王の一市民さん。")
   ShowMessageFace("sara_fc1",4,0,2,46)
   ShowMessage("\\n<Sara>……そうさせてもらうわ。 しばらく後の事になりそうだけど……")
   ShowMessageFace("sara_fc1",4,0,2,47)
   ShowMessage("\\n<Sara>この村で何が行われていたか、全て明らかにするべき…… その上であらゆる情状酌量を鑑み、正当な判決を期待するわ。")
   If(0,4,0)
    ShowMessageFace("alice_fc5",3,0,2,48)
    ShowMessage("\\n<Alice>……まったく、あまりサラをいじめてやるな。 事件当時はまだ子供、この一件に責任など持てる立場にない。")
    ShowMessageFace("alice_fc5",0,0,2,49)
    ShowMessage("\\n<Alice>そして、用件は元王女をやり込めるだけとは思えんな。 旅人としての我々に、何か話があるのではないのか？")
    0()
   EndIf()
   If(0,5,0)
    ShowMessageFace("iriasu_fc4",2,0,2,50)
    ShowMessage("\\n<Ilias>……うちの元女王を、あまりいじめないでもらえますか。 この一件、神でもなければ適正な裁きはできないでしょう。")
    ShowMessageFace("iriasu_fc4",7,0,2,51)
    ShowMessage("\\n<Ilias>そして、用件は元女王をやり込めるだけではないでしょう？ 旅人としての我々に、何か話があるのでは……？")
    0()
   EndIf()
   0()
  EndIf()
  ShowMessageFace("lily_fc1",0,0,2,52)
  ShowMessage("\\n<Lily>ええ……あなた達に、取引を持ちかけたいの。 知っているとは思うけど、私達に反抗する者達がいるのよ。")
  ShowMessageFace("lily_fc1",0,0,2,53)
  ShowMessage("\\n<Lily>ルシアという魔導師率いる、暴力的な一派。 彼女達は、蝕魔導の力を世界に広げたくないそうよ。")
  ShowMessageFace("lily_fc1",0,0,2,54)
  ShowMessage("\\n<Lily>ルシアも元々は私の同志で、力を与えられた者だけれど…… この力を危険なものとみなし、秘匿しようとしているのよ。")
  ShowMessageFace("lily_fc1",0,0,2,55)
  ShowMessage("\\n<Lily>ついに先日には、武力攻撃に踏み切ってきたわ…… そこであなた達に、ルシアを倒してきてほしいのよ。")
  ShowMessageFace("ruka_fc1",0,0,2,56)
  ShowMessage("\\n<Luka>反乱軍のリーダーを倒すのが、取引だって……？")
  ShowMessageFace("lily_fc1",0,0,2,57)
  ShowMessage("\\n<Lily>もちろん取引である以上、見返りはあるわ。 この私が、あなた達の旅に同行してあげる。")
  If(0,6,0)
   ShowMessageFace("sonia_fc3",7,0,2,58)
   ShowMessage("\\n<Sonya>それ、私達の仲間になるって事……？")
   0()
  Else()
   ShowMessageFace("ruka_fc1",0,0,2,59)
   ShowMessage("\\n<Luka>つまり、僕達の仲間に……？")
   0()
  EndIf()
  ShowMessageFace("lily_fc1",0,0,2,60)
  ShowMessage("\\n<Lily>ええ、その通りよ…… 世界には、まだまだ虐げられた者達がいるわ。")
  PictureDisplay(5,"80_lily_st13",0,0,0,0,100,100,255,0)
  ShowMessageFace("lily_fc1",2,0,2,61)
  ShowMessage("\\n<Lily>力を持たないがゆえ、人間としての尊厳どころか、 生命までが危険にさらされている者達が……")
  ShowMessageFace("lily_fc1",2,0,2,62)
  ShowMessage("\\n<Lily>聞こえるかしら、そうした者達の悲鳴を…… 私には聞こえるのよ、助けを……そして力を求める声が。")
  ShowMessageFace("lily_fc1",0,0,2,63)
  ShowMessage("\\n<Lily>私は、そういう者達の嘆きに応えてあげたいの。 現状を打破するための、蝕魔導という力を授ける事でね……")
  If(0,6,0)
   ShowMessageFace("sonia_fc3",0,0,2,64)
   ShowMessage("\\n<Sonya>虐げられてる人を救うために旅を……？ それ、本当に……？")
   0()
  Else()
   ShowMessageFace("ruka_fc1",0,0,2,65)
   ShowMessage("\\n<Luka>本当に……？ 嘘とか、吐いてないよね……？")
   0()
  EndIf()
  PictureDisplay(5,"80_lily_st13",0,0,0,0,100,100,255,0)
  ShowMessageFace("lily_fc1",2,0,2,66)
  ShowMessage("\\n<Lily>だって、ほら……今も聞こえるでしょう、子供の泣き声が…… こんなに大きな声で泣いているのに、あなたは聞こえないの？")
  ShowMessageFace("lily_fc1",2,0,2,67)
  ShowMessage("\\n<Lily>ほら、そこからも……あそこからも……！ 泣いてる、みんな泣いてるでしょう……！？")
  ShowMessageFace("lily_fc1",2,0,2,68)
  ShowMessage("\\n<Lily>この泣き声が聞こえなくなるまで…… それまで、私は弱者を救済しなければならないのよ！")
  ShowMessageFace("ruka_fc1",0,0,2,69)
  ShowMessage("\\n<Luka>……………………")
  PictureDisplay(5,"80_lily_st11",0,0,0,0,100,100,255,0)
  ShowMessageFace("lily_fc1",0,0,2,70)
  ShowMessage("\\n<Lily>この村にいる者は、全て私が救ったわ。 でも、外の世界から泣き声は止まないのよ……")
  ShowMessageFace("lily_fc1",0,0,2,71)
  ShowMessage("\\n<Lily>それを全て止めるために、私は近く村を出るつもりでいたの。 そこに、今回の反乱騒ぎなのよ……")
  ShowMessageFace("lily_fc1",0,0,2,72)
  ShowMessage("\\n<Lily>ルシアさえいなくなれば、私も旅に出られるわ。 虐げられた者達を救い、力を与える旅にね……")
  ShowMessageFace("lily_fc1",0,0,2,73)
  ShowMessage("\\n<Lily>あなたも、これまで弱者を救ってきたのでしょう？ ならば、あなたと私は同じなのよ……")
  ShowMessageFace("lily_fc1",0,0,2,74)
  ShowMessage("\\n<Lily>だから、ルシアを倒してきて。 そうすれば私も、あなた達と共に行くわ。")
  ShowMessageFace("lily_fc1",0,0,2,75)
  ShowMessage("\\n<Lily>別にルシアを殺さなくてもいい……黙らせるだけでいいの。 この村に混乱をもたらさないようになれば、それでいいのよ。")
  If(0,4,0)
   ShowMessageFace("alice_fc5",3,0,2,76)
   ShowMessage("\\n<Alice>……………………")
   ShowMessageFace("alice_fc5",0,0,2,77)
   ShowMessage("\\n<Alice>嘘は言っていないようだな。 どうする、ルカ？")
   0()
  EndIf()
  If(0,5,0)
   ShowMessageFace("iriasu_fc4",2,0,2,78)
   ShowMessage("\\n<Ilias>その言葉、全て本心のようですね。 どうするのですか、ルカ……？")
   0()
  EndIf()
  If(0,1529,0)
   ShowMessageFace("sara_fc1",4,0,2,79)
   ShowMessage("\\n<Sara>元女王としての判断は、さっきも言った通りよ。 この取引は……ルカの決断に任せるわ。")
   0()
  EndIf()
  ShowMessageFace("ruka_fc1",0,0,2,80)
  ShowMessage("\\n<Luka>……………………")
  ShowMessageFace("",0,0,2,81)
  ShowMessage("さて、どうするべきか――")
  ShowChoices(strings("取引に応じ、ルシアを倒す","取引に応じず、リリィを倒す","取引に応じず、リリィを見逃す","もう少し考える"),0)
  IfPlayerPicksChoice(0,null)
   ShowMessageFace("lily_fc1",0,0,2,82)
   ShowMessage("\\n<Lily>やっぱり、私とあなたは似ているわね…… きっと分かってくれると思っていたわ。")
   ShowMessageFace("lily_fc1",0,0,2,83)
   ShowMessage("\\n<Lily>それじゃあ、私はここで待っているわよ。 ルシアを倒してくれたら、晴れて私も仲間になるわ。")
   PictureClear(5)
   EndEventProcessing()
   0()
  IfPlayerPicksChoice(1,null)
   ChangeSwitch(2091,2091,0)
   PictureDisplay(5,"80_lily_st13",0,0,0,0,100,100,255,0)
   ShowMessageFace("lily_fc1",2,0,2,84)
   ShowMessage("\\n<Lily>あくまで敵対するというのね。 ならば、ここから出て行きなさい……")
   PictureClear(5)
   250(bytes(0x04,0x08,0x6f,0x3a,0x0c,0x52,0x50,0x47,0x3a,0x3a,0x53,0x45,0x08,0x3a,0x0a,0x40,0x6e,0x61,0x6d,0x65,0x49,0x22,0x0b,0x4d,0x61,0x67,0x69,0x63,0x31,0x06,0x3a,0x06,0x45,0x54,0x3a,0x0b,0x40,0x70,0x69,0x74,0x63,0x68,0x69,0x69,0x3a,0x0c,0x40,0x76,0x6f,0x6c,0x75,0x6d,0x65,0x69,0x55))
   221()
   250(bytes(0x04,0x08,0x6f,0x3a,0x0c,0x52,0x50,0x47,0x3a,0x3a,0x53,0x45,0x08,0x3a,0x0a,0x40,0x6e,0x61,0x6d,0x65,0x49,0x22,0x09,0x4d,0x6f,0x76,0x65,0x06,0x3a,0x06,0x45,0x54,0x3a,0x0b,0x40,0x70,0x69,0x74,0x63,0x68,0x69,0x69,0x3a,0x0c,0x40,0x76,0x6f,0x6c,0x75,0x6d,0x65,0x69,0x55))
   ShowMessageFace("",0,0,2,85)
   ShowMessage("リリィの魔力で、屋敷の外に放り出された！")
   ChangeSwitch(31,31,1)
   TeleportPlayer(0,224,38,17,0,2)
   223(bytes(0x04,0x08,0x75,0x3a,0x09,0x54,0x6f,0x6e,0x65,0x25,0x00,0x00,0x00,0x00,0x00,0x00,0x00,0x00,0x00,0x00,0x00,0x00,0x00,0x00,0x00,0x00,0x00,0x00,0x00,0x00,0x00,0x00,0x00,0x00,0x00,0x00,0x00,0x00,0x00,0x00,0x00,0x00),1,true)
   Wait(60)
   222()
   0()
  IfPlayerPicksChoice(2,null)
   ChangeSwitch(2091,2091,0)
   PictureDisplay(5,"80_lily_st13",0,0,0,0,100,100,255,0)
   ShowMessageFace("lily_fc1",2,0,2,86)
   ShowMessage("\\n<Lily>取引は決裂ね。 ならば、ここから出て行きなさい……")
   PictureClear(5)
   250(bytes(0x04,0x08,0x6f,0x3a,0x0c,0x52,0x50,0x47,0x3a,0x3a,0x53,0x45,0x08,0x3a,0x0a,0x40,0x6e,0x61,0x6d,0x65,0x49,0x22,0x0b,0x4d,0x61,0x67,0x69,0x63,0x31,0x06,0x3a,0x06,0x45,0x54,0x3a,0x0b,0x40,0x70,0x69,0x74,0x63,0x68,0x69,0x69,0x3a,0x0c,0x40,0x76,0x6f,0x6c,0x75,0x6d,0x65,0x69,0x55))
   221()
   250(bytes(0x04,0x08,0x6f,0x3a,0x0c,0x52,0x50,0x47,0x3a,0x3a,0x53,0x45,0x08,0x3a,0x0a,0x40,0x6e,0x61,0x6d,0x65,0x49,0x22,0x09,0x4d,0x6f,0x76,0x65,0x06,0x3a,0x06,0x45,0x54,0x3a,0x0b,0x40,0x70,0x69,0x74,0x63,0x68,0x69,0x69,0x3a,0x0c,0x40,0x76,0x6f,0x6c,0x75,0x6d,0x65,0x69,0x55))
   ShowMessageFace("",0,0,2,87)
   ShowMessage("リリィの魔力で、屋敷の外に放り出された！")
   ChangeSwitch(31,31,1)
   TeleportPlayer(0,224,38,17,0,2)
   223(bytes(0x04,0x08,0x75,0x3a,0x09,0x54,0x6f,0x6e,0x65,0x25,0x00,0x00,0x00,0x00,0x00,0x00,0x00,0x00,0x00,0x00,0x00,0x00,0x00,0x00,0x00,0x00,0x00,0x00,0x00,0x00,0x00,0x00,0x00,0x00,0x00,0x00,0x00,0x00,0x00,0x00,0x00,0x00),1,true)
   Wait(60)
   222()
   0()
  IfPlayerPicksChoice(3,null)
   ShowMessageFace("lily_fc1",0,0,2,88)
   ShowMessage("\\n<Lily>言葉での返答は不要よ…… ルシア撃退の報を、返事の代わりに受け取るわ。")
   ShowMessageFace("lily_fc1",0,0,2,89)
   ShowMessage("\\n<Lily>それじゃあ、私はここで待っているわよ。 ルシアを倒してくれたら、晴れて私も仲間になるわ。")
   PictureClear(5)
   EndEventProcessing()
   0()
  404()
  0()
 PAGE   2
  // condition: variable 1029 >= 3
  0()



EVENT   36
 PAGE   1
  If(8,521)
   250(bytes(0x04,0x08,0x6f,0x3a,0x0c,0x52,0x50,0x47,0x3a,0x3a,0x53,0x45,0x08,0x3a,0x0a,0x40,0x6e,0x61,0x6d,0x65,0x49,0x22,0x09,0x4d,0x6f,0x76,0x65,0x06,0x3a,0x06,0x45,0x54,0x3a,0x0b,0x40,0x70,0x69,0x74,0x63,0x68,0x69,0x69,0x3a,0x0c,0x40,0x76,0x6f,0x6c,0x75,0x6d,0x65,0x69,0x55))
   TeleportPlayer(0,361,13,38,8,0)
   0()
  Else()
   ChangeSwitch(2093,2093,0)
   250(bytes(0x04,0x08,0x6f,0x3a,0x0c,0x52,0x50,0x47,0x3a,0x3a,0x53,0x45,0x08,0x3a,0x0a,0x40,0x6e,0x61,0x6d,0x65,0x49,0x22,0x0b,0x4d,0x61,0x67,0x69,0x63,0x31,0x06,0x3a,0x06,0x45,0x54,0x3a,0x0b,0x40,0x70,0x69,0x74,0x63,0x68,0x69,0x69,0x3a,0x0c,0x40,0x76,0x6f,0x6c,0x75,0x6d,0x65,0x69,0x55))
   250(bytes(0x04,0x08,0x6f,0x3a,0x0c,0x52,0x50,0x47,0x3a,0x3a,0x53,0x45,0x08,0x3a,0x0a,0x40,0x6e,0x61,0x6d,0x65,0x49,0x22,0x09,0x4d,0x6f,0x76,0x65,0x06,0x3a,0x06,0x45,0x54,0x3a,0x0b,0x40,0x70,0x69,0x74,0x63,0x68,0x69,0x69,0x3a,0x0c,0x40,0x76,0x6f,0x6c,0x75,0x6d,0x65,0x69,0x55))
   TeleportPlayer(0,360,16,22,2,0)
   If(0,4,0)
    ShowMessageFace("alice_fc5",0,0,2,1)
    ShowMessage("\\n<Alice>むっ……何か妙な感じだな。")
    0()
   EndIf()
   If(0,5,0)
    ShowMessageFace("iriasu_fc4",2,0,2,2)
    ShowMessage("\\n<Ilias>……なにやら、妙な感じですね。")
    0()
   EndIf()
   If(0,6,0)
    ShowMessageFace("sonia_fc2",2,0,2,3)
    ShowMessage("\\n<Sonya>1階の階段を降りたのに、なんでまた1階なの……？")
    0()
   Else()
    ShowMessageFace("ruka_fc1",0,0,2,4)
    ShowMessage("\\n<Luka>1階の階段を降りたのに、また1階だなんて……")
    0()
   EndIf()
   If(0,4,0)
    ShowMessageFace("alice_fc5",0,0,2,5)
    ShowMessage("\\n<Alice>階段に備わった移動魔術で、別の場所に飛ばされたのだな。 先の階段を降りるためには、魔術を破る手段を探さねば……")
    0()
   EndIf()
   If(0,5,0)
    ShowMessageFace("iriasu_fc4",7,0,2,6)
    ShowMessage("\\n<Ilias>階段に備わった移動魔術で、別の場所に飛ばされたのです。 先の階段を降りるためには、魔術を破る手段を探さないと……")
    0()
   EndIf()
   0()
  EndIf()
  0()



EVENT   10
 PAGE   1
  If(8,521)
   250(bytes(0x04,0x08,0x6f,0x3a,0x0c,0x52,0x50,0x47,0x3a,0x3a,0x53,0x45,0x08,0x3a,0x0a,0x40,0x6e,0x61,0x6d,0x65,0x49,0x22,0x09,0x4d,0x6f,0x76,0x65,0x06,0x3a,0x06,0x45,0x54,0x3a,0x0b,0x40,0x70,0x69,0x74,0x63,0x68,0x69,0x69,0x3a,0x0c,0x40,0x76,0x6f,0x6c,0x75,0x6d,0x65,0x69,0x55))
   TeleportPlayer(0,361,13,38,8,0)
   0()
  Else()
   ChangeSwitch(2093,2093,0)
   250(bytes(0x04,0x08,0x6f,0x3a,0x0c,0x52,0x50,0x47,0x3a,0x3a,0x53,0x45,0x08,0x3a,0x0a,0x40,0x6e,0x61,0x6d,0x65,0x49,0x22,0x0b,0x4d,0x61,0x67,0x69,0x63,0x31,0x06,0x3a,0x06,0x45,0x54,0x3a,0x0b,0x40,0x70,0x69,0x74,0x63,0x68,0x69,0x69,0x3a,0x0c,0x40,0x76,0x6f,0x6c,0x75,0x6d,0x65,0x69,0x55))
   250(bytes(0x04,0x08,0x6f,0x3a,0x0c,0x52,0x50,0x47,0x3a,0x3a,0x53,0x45,0x08,0x3a,0x0a,0x40,0x6e,0x61,0x6d,0x65,0x49,0x22,0x09,0x4d,0x6f,0x76,0x65,0x06,0x3a,0x06,0x45,0x54,0x3a,0x0b,0x40,0x70,0x69,0x74,0x63,0x68,0x69,0x69,0x3a,0x0c,0x40,0x76,0x6f,0x6c,0x75,0x6d,0x65,0x69,0x55))
   TeleportPlayer(0,360,16,22,2,0)
   If(0,4,0)
    ShowMessageFace("alice_fc5",0,0,2,1)
    ShowMessage("\\n<Alice>むっ……何か妙な感じだな。")
    0()
   EndIf()
   If(0,5,0)
    ShowMessageFace("iriasu_fc4",2,0,2,2)
    ShowMessage("\\n<Ilias>……なにやら、妙な感じですね。")
    0()
   EndIf()
   If(0,6,0)
    ShowMessageFace("sonia_fc2",2,0,2,3)
    ShowMessage("\\n<Sonya>1階の階段を降りたのに、なんでまた1階なの……？")
    0()
   Else()
    ShowMessageFace("ruka_fc1",0,0,2,4)
    ShowMessage("\\n<Luka>1階の階段を降りたのに、また1階だなんて……")
    0()
   EndIf()
   If(0,4,0)
    ShowMessageFace("alice_fc5",0,0,2,5)
    ShowMessage("\\n<Alice>階段に備わった移動魔術で、別の場所に飛ばされたのだな。 先の階段を降りるためには、魔術を破る手段を探さねば……")
    0()
   EndIf()
   If(0,5,0)
    ShowMessageFace("iriasu_fc4",7,0,2,6)
    ShowMessage("\\n<Ilias>階段に備わった移動魔術で、別の場所に飛ばされたのです。 先の階段を降りるためには、魔術を破る手段を探さないと……")
    0()
   EndIf()
   0()
  EndIf()
  0()



EVENT   37
 PAGE   1
  250(bytes(0x04,0x08,0x6f,0x3a,0x0c,0x52,0x50,0x47,0x3a,0x3a,0x53,0x45,0x08,0x3a,0x0a,0x40,0x6e,0x61,0x6d,0x65,0x49,0x22,0x0a,0x49,0x74,0x65,0x6d,0x31,0x06,0x3a,0x06,0x45,0x54,0x3a,0x0b,0x40,0x70,0x69,0x74,0x63,0x68,0x69,0x69,0x3a,0x0c,0x40,0x76,0x6f,0x6c,0x75,0x6d,0x65,0x69,0x55))
  ChangeSelfSwitch("A",0)
  ChangeInventory_Item(25,0,0,1)
  0()
 PAGE   2
  // condition: self-switch A is ON
  0()



EVENT   39
 PAGE   1
  ShowMessageFace("",0,0,2,1)
  ShowMessage("壺は蜜壺だった！")
  Battle(0,269,false,false)
  ChangeSelfSwitch("A",0)
  0()
 PAGE   2
  // condition: self-switch A is ON
  0()



EVENT   32
 PAGE   1
  ChangeSwitch(31,31,1)
  ChangeSwitch(100,100,1)
  250(bytes(0x04,0x08,0x6f,0x3a,0x0c,0x52,0x50,0x47,0x3a,0x3a,0x53,0x45,0x08,0x3a,0x0a,0x40,0x6e,0x61,0x6d,0x65,0x49,0x22,0x09,0x4d,0x6f,0x76,0x65,0x06,0x3a,0x06,0x45,0x54,0x3a,0x0b,0x40,0x70,0x69,0x74,0x63,0x68,0x69,0x69,0x3a,0x0c,0x40,0x76,0x6f,0x6c,0x75,0x6d,0x65,0x69,0x55))
  223(bytes(0x04,0x08,0x75,0x3a,0x09,0x54,0x6f,0x6e,0x65,0x25,0x00,0x00,0x00,0x00,0x00,0x00,0x00,0x00,0x00,0x00,0x00,0x00,0x00,0x00,0x00,0x00,0x00,0x00,0x00,0x00,0x00,0x00,0x00,0x00,0x00,0x00,0x00,0x00,0x00,0x00,0x00,0x00),1,true)
  TeleportPlayer(0,224,38,17,0,0)
  0()



EVENT   38
 PAGE   1
  ChangeSwitch(31,31,1)
  ChangeSwitch(100,100,1)
  250(bytes(0x04,0x08,0x6f,0x3a,0x0c,0x52,0x50,0x47,0x3a,0x3a,0x53,0x45,0x08,0x3a,0x0a,0x40,0x6e,0x61,0x6d,0x65,0x49,0x22,0x09,0x4d,0x6f,0x76,0x65,0x06,0x3a,0x06,0x45,0x54,0x3a,0x0b,0x40,0x70,0x69,0x74,0x63,0x68,0x69,0x69,0x3a,0x0c,0x40,0x76,0x6f,0x6c,0x75,0x6d,0x65,0x69,0x55))
  223(bytes(0x04,0x08,0x75,0x3a,0x09,0x54,0x6f,0x6e,0x65,0x25,0x00,0x00,0x00,0x00,0x00,0x00,0x00,0x00,0x00,0x00,0x00,0x00,0x00,0x00,0x00,0x00,0x00,0x00,0x00,0x00,0x00,0x00,0x00,0x00,0x00,0x00,0x00,0x00,0x00,0x00,0x00,0x00),1,true)
  TeleportPlayer(0,224,38,17,0,0)
  0()



EVENT   25
 PAGE   1
  If(1,1029,0,5,1)
   250(bytes(0x04,0x08,0x6f,0x3a,0x0c,0x52,0x50,0x47,0x3a,0x3a,0x53,0x45,0x08,0x3a,0x0a,0x40,0x6e,0x61,0x6d,0x65,0x49,0x22,0x09,0x4d,0x6f,0x76,0x65,0x06,0x3a,0x06,0x45,0x54,0x3a,0x0b,0x40,0x70,0x69,0x74,0x63,0x68,0x69,0x69,0x3a,0x0c,0x40,0x76,0x6f,0x6c,0x75,0x6d,0x65,0x69,0x55))
   TeleportPlayer(0,359,38,23,0,0)
   EndEventProcessing()
   0()
  EndIf()
  If(0,2091,1)
   ShowMessageFace("",0,0,2,1)
   ShowMessage("扉は固く閉ざされている……")
   EndEventProcessing()
   0()
  Else()
   250(bytes(0x04,0x08,0x6f,0x3a,0x0c,0x52,0x50,0x47,0x3a,0x3a,0x53,0x45,0x08,0x3a,0x0a,0x40,0x6e,0x61,0x6d,0x65,0x49,0x22,0x09,0x4d,0x6f,0x76,0x65,0x06,0x3a,0x06,0x45,0x54,0x3a,0x0b,0x40,0x70,0x69,0x74,0x63,0x68,0x69,0x69,0x3a,0x0c,0x40,0x76,0x6f,0x6c,0x75,0x6d,0x65,0x69,0x55))
   TeleportPlayer(0,359,38,23,0,0)
   EndEventProcessing()
   0()
  EndIf()
  0()



EVENT   40
 PAGE   1
  0()



EVENT   35
 PAGE   1
  // condition: variable 1029 >= 3
  PictureDisplay(5,"80_lily_st11",0,0,0,0,100,100,0,0)
  PictureMove(5,null,0,0,0,0,100,100,255,0,30,true)
  ShowMessageFace("lily_fc1",0,0,2,1)
  ShowMessage("\\n<Lily>あら、まだルシアを倒していないようね。 それとも……何か心変わりでもあったのかしら？")
  ShowChoices(strings("心変わりはない","やっぱりリリィを倒す","まだ考え中"),3)
  IfPlayerPicksChoice(0,null)
   ShowMessageFace("lily_fc1",0,0,2,2)
   ShowMessage("\\n<Lily>それじゃあ、私はここで待っているわよ。 ルシアを倒してくれたら、晴れて私も仲間になるわ。")
   PictureClear(5)
   EndEventProcessing()
   0()
  IfPlayerPicksChoice(1,null)
   ChangeSwitch(2091,2091,0)
   PictureDisplay(5,"80_lily_st13",0,0,0,0,100,100,255,0)
   ShowMessageFace("lily_fc1",2,0,2,3)
   ShowMessage("\\n<Lily>あくまで敵対するというのね。 ならば、ここから出て行きなさい……")
   PictureClear(5)
   250(bytes(0x04,0x08,0x6f,0x3a,0x0c,0x52,0x50,0x47,0x3a,0x3a,0x53,0x45,0x08,0x3a,0x0a,0x40,0x6e,0x61,0x6d,0x65,0x49,0x22,0x0b,0x4d,0x61,0x67,0x69,0x63,0x31,0x06,0x3a,0x06,0x45,0x54,0x3a,0x0b,0x40,0x70,0x69,0x74,0x63,0x68,0x69,0x69,0x3a,0x0c,0x40,0x76,0x6f,0x6c,0x75,0x6d,0x65,0x69,0x55))
   221()
   250(bytes(0x04,0x08,0x6f,0x3a,0x0c,0x52,0x50,0x47,0x3a,0x3a,0x53,0x45,0x08,0x3a,0x0a,0x40,0x6e,0x61,0x6d,0x65,0x49,0x22,0x09,0x4d,0x6f,0x76,0x65,0x06,0x3a,0x06,0x45,0x54,0x3a,0x0b,0x40,0x70,0x69,0x74,0x63,0x68,0x69,0x69,0x3a,0x0c,0x40,0x76,0x6f,0x6c,0x75,0x6d,0x65,0x69,0x55))
   ShowMessageFace("",0,0,2,4)
   ShowMessage("リリィの魔力で、屋敷の外に放り出された！")
   ChangeSwitch(31,31,1)
   TeleportPlayer(0,224,38,17,0,2)
   223(bytes(0x04,0x08,0x75,0x3a,0x09,0x54,0x6f,0x6e,0x65,0x25,0x00,0x00,0x00,0x00,0x00,0x00,0x00,0x00,0x00,0x00,0x00,0x00,0x00,0x00,0x00,0x00,0x00,0x00,0x00,0x00,0x00,0x00,0x00,0x00,0x00,0x00,0x00,0x00,0x00,0x00,0x00,0x00),1,true)
   Wait(60)
   222()
   0()
  IfPlayerPicksChoice(2,null)
   ShowMessageFace("lily_fc1",0,0,2,5)
   ShowMessage("\\n<Lily>言葉での返答は不要よ…… ルシア撃退の報を、返事の代わりに受け取るわ。")
   ShowMessageFace("lily_fc1",0,0,2,6)
   ShowMessage("\\n<Lily>それじゃあ、私はここで待っているわよ。 ルシアを倒してくれたら、晴れて私も仲間になるわ。")
   PictureClear(5)
   EndEventProcessing()
   0()
  404()
  0()
 PAGE   2
  // condition: switch 2091 is ON
  0()
 PAGE   3
  // condition: switch 2097 is ON
  PictureDisplay(5,"80_lily_st11",0,0,0,0,100,100,0,0)
  PictureMove(5,null,0,0,0,0,100,100,255,0,30,true)
  ShowMessageFace("lily_fc1",0,0,2,1)
  ShowMessage("\\n<Lily>約束通り、ルシアを倒してくれたようね。 心から、礼を言うわ……")
  PictureDisplay(5,"80_lily_st13",0,0,0,0,100,100,255,0)
  ShowMessageFace("lily_fc1",2,0,2,2)
  ShowMessage("\\n<Lily>……あの娘が、私のことを一番分かってくれていたはずなの。 小さい頃から一緒で、同じ苦しみを分かち合って……")
  ShowMessageFace("lily_fc1",2,0,2,3)
  ShowMessage("\\n<Lily>大人達の目を盗みながら、魔導の本を読み漁って…… 協力しながら研究を進めて、ついに力を得たのに……")
  ShowMessageFace("lily_fc1",2,0,2,4)
  ShowMessage("\\n<Lily>いつしか、あの娘は力を恐れるようになっていたのよ。 村の圧制者達を全て駆逐した、あの惨劇の日から……")
  If(4,62,0)
   ShowMessageFace("gob_fc1",3,0,2,5)
   ShowMessage("\\n<Gob>リリィさん、昔の友達を自分で倒したくなかったんだよね…… ズルいけど、そういうの分かるよ……")
   0()
  EndIf()
  ShowMessageFace("ruka_fc1",0,0,2,6)
  ShowMessage("\\n<Luka>……………………")
  PictureDisplay(5,"80_lily_st11",0,0,0,0,100,100,255,0)
  ShowMessageFace("lily_fc1",0,0,2,7)
  ShowMessage("\\n<Lily>……それじゃあ、約束通り私も行くわ。 もうこの村に、救うべき者はいないから。")
  ShowMessageFace("lily_fc1",0,0,2,8)
  ShowMessage("\\n<Lily>まだまだ世界中に、虐げられた者達がいるはずよ。 私にはいつも聞こえているの、助けを聞こえる泣き声が……")
  ShowMessageFace("lily_fc1",0,0,2,9)
  ShowMessage("\\n<Lily>同志として、共に力なき者達を救いましょう。 それが、力を持った者の責務なのだから……")
  PictureClear(5)
  205(0,bytes(0x04,0x08,0x6f,0x3a,0x13,0x52,0x50,0x47,0x3a,0x3a,0x4d,0x6f,0x76,0x65,0x52,0x6f,0x75,0x74,0x65,0x09,0x3a,0x0c,0x40,0x72,0x65,0x70,0x65,0x61,0x74,0x46,0x3a,0x0f,0x40,0x73,0x6b,0x69,0x70,0x70,0x61,0x62,0x6c,0x65,0x46,0x3a,0x0a,0x40,0x77,0x61,0x69,0x74,0x54,0x3a,0x0a,0x40,0x6c,0x69,0x73,0x74,0x5b,0x09,0x6f,0x3a,0x15,0x52,0x50,0x47,0x3a,0x3a,0x4d,0x6f,0x76,0x65,0x43,0x6f,0x6d,0x6d,0x61,0x6e,0x64,0x07,0x3a,0x0a,0x40,0x63,0x6f,0x64,0x65,0x69,0x2a,0x3a,0x10,0x40,0x70,0x61,0x72,0x61,0x6d,0x65,0x74,0x65,0x72,0x73,0x5b,0x00,0x6f,0x3b,0x0a,0x07,0x3b,0x0b,0x69,0x0f,0x3b,0x0c,0x5b,0x00,0x6f,0x3b,0x0a,0x07,0x3b,0x0b,0x69,0x2c,0x3b,0x0c,0x5b,0x00,0x6f,0x3b,0x0a,0x07,0x3b,0x0b,0x69,0x00,0x3b,0x0c,0x5b,0x00))
  355("add_actor_ex(163)")
  249(bytes(0x04,0x08,0x6f,0x3a,0x0c,0x52,0x50,0x47,0x3a,0x3a,0x4d,0x45,0x08,0x3a,0x0a,0x40,0x6e,0x61,0x6d,0x65,0x49,0x22,0x0c,0x66,0x61,0x6e,0x66,0x61,0x6c,0x65,0x06,0x3a,0x06,0x45,0x54,0x3a,0x0b,0x40,0x70,0x69,0x74,0x63,0x68,0x69,0x69,0x3a,0x0c,0x40,0x76,0x6f,0x6c,0x75,0x6d,0x65,0x69,0x69))
  ShowMessageFace("",0,0,2,10)
  ShowMessage("リリィが仲間に加わった！")
  ChangeSwitch(2137,2137,0)
  ChangeVariable(1029,1029,0,0,6)
  Wait(60)
  355("gain_medal(28)")
  If(0,6,0)
   ShowMessageFace("sonia_fc2",2,0,2,11)
   ShowMessage("\\n<Sonya>……本当にいいの、ルカ？ なんだか危なっかしい気も……")
   ShowMessageFace("ruka_fc1",0,0,2,12)
   ShowMessage("\\n<Luka>一緒に旅をすることで、色々と変わる事があるはずだよ。 特に彼女は、村に閉じこもっているべきじゃないと思う……")
   If(4,529,0)
    ShowMessageFace("sara_fc1",4,0,2,13)
    ShowMessage("\\n<Sara>一人で思い詰める方が、危険よね……")
    0()
   EndIf()
   0()
  EndIf()
  If(1,1001,0,18,1)
   EndEventProcessing()
   0()
  EndIf()
  If(0,4,0)
   ShowMessageFace("alice_fc5",0,0,2,14)
   ShowMessage("\\n<Alice>ともかく、この件は片付いたな。 そろそろノームと契約を結びに行きたいところだが……")
   0()
  EndIf()
  If(0,5,0)
   ShowMessageFace("iriasu_fc4",0,0,2,15)
   ShowMessage("\\n<Ilias>ともかく、この件は片付きましたね。 気は進みませんが、そろそろノームのところに行きませんか？")
   0()
  EndIf()
  If(1,1031,0,2,2)
   If(0,6,0)
    ShowMessageFace("sonia_fc1",0,0,2,16)
    ShowMessage("\\n<Sonya>その前に、サルーンに行ってみない？ クリスタル製の装備が造れる鍛冶屋がいるって話じゃない。")
    0()
   Else()
    ShowMessageFace("ruka_fc1",0,0,2,17)
    ShowMessage("\\n<Luka>その前に、サルーンに行いきたいな。 クリスタル製の装備が造れる鍛冶屋がいるって話を聞いたよ。")
    0()
   EndIf()
   If(0,4,0)
    ShowMessageFace("alice_fc5",0,0,2,18)
    ShowMessage("\\n<Alice>うむ……激戦に挑む以上、装備も整えておきたいな。 貴様の判断に任せよう。")
    0()
   EndIf()
   If(0,5,0)
    ShowMessageFace("iriasu_fc4",0,0,2,19)
    ShowMessage("\\n<Ilias>激戦に備え、装備を固めるのは悪くありませんね。 あなたの判断に任せましょう。")
    0()
   EndIf()
   ShowMessageFace("",0,0,2,20)
   ShowMessage("サルーンは確か、サバサ最北の町。 グランドールから北にサファル砂漠遺跡があるが、さらに北。")
   ShowMessageFace("",0,0,2,21)
   ShowMessage("山脈の切れ目に、砂漠から荒野に変わる地点がある。 そこを東側に進むと、サルーンがある……そういう話だ。")
   ShowMessageFace("",0,0,2,22)
   ShowMessage("そこに、クリスタル製の装備品が造れる鍛冶屋がいるという。 ノームに会いに行く前に、揃えておくべきだろう。")
   ShowMessageFace("ruka_fc1",0,0,2,23)
   ShowMessage("\\n<Luka>それじゃあ、次の目的地に行こう！")
   ShowMessageFace("",0,0,2,24)
   ShowMessage("マギステア村の騒動は収束し、新たな仲間を迎えた。 こうして僕達は、次の目的地へ旅立つのだった――")
   If(1,1031,0,0,0)
    ChangeVariable(1031,1031,0,0,1)
    0()
   EndIf()
   EndEventProcessing()
   0()
  Else()
   ShowMessageFace("ruka_fc1",0,0,2,25)
   ShowMessage("\\n<Luka>ノームのいるサファル遺跡は、グランドールの北だったね。 それじゃあ、行こう！")
   EndEventProcessing()
   0()
  EndIf()
  0()
 PAGE   4
  // condition: switch 2137 is ON
  // condition: variable 1029 >= 6
  0()
